\contentsline {chapter}{\numberline {1}Main Page}{1}{chapter.1}
\contentsline {chapter}{\numberline {2}Class Index}{3}{chapter.2}
\contentsline {section}{\numberline {2.1}Class List}{3}{section.2.1}
\contentsline {chapter}{\numberline {3}File Index}{5}{chapter.3}
\contentsline {section}{\numberline {3.1}File List}{5}{section.3.1}
\contentsline {chapter}{\numberline {4}Class Documentation}{7}{chapter.4}
\contentsline {section}{\numberline {4.1}b2b\discretionary {\unhbox \voidb@x \hbox {\relax \fontsize {7}{8}\selectfont $\leftarrow \joinrel \rhook $}}{}{}Heap$<$ T $>$ Class Template Reference}{7}{section.4.1}
\contentsline {subsection}{\numberline {4.1.1}Constructor \& Destructor Documentation}{8}{subsection.4.1.1}
\contentsline {subsubsection}{\numberline {4.1.1.1}b2b\discretionary {\unhbox \voidb@x \hbox {\relax \fontsize {7}{8}\selectfont $\leftarrow \joinrel \rhook $}}{}{}Heap()\hspace {0.1cm}{\relax \fontsize {8}{9.5}\selectfont \abovedisplayskip 6\p@ plus2\p@ minus4\p@ \abovedisplayshortskip \z@ plus\p@ \belowdisplayshortskip 3\p@ plus\p@ minus2\p@ \def \leftmargin \leftmargini \parsep 4\p@ plus2\p@ minus\p@ \topsep 8\p@ plus2\p@ minus4\p@ \itemsep 4\p@ plus2\p@ minus\p@ {\leftmargin \leftmargini \topsep 3\p@ plus\p@ minus\p@ \parsep 2\p@ plus\p@ minus\p@ \itemsep \parsep }\belowdisplayskip \abovedisplayskip \ttfamily [1/2]}}{8}{subsubsection.4.1.1.1}
\contentsline {subsubsection}{\numberline {4.1.1.2}b2b\discretionary {\unhbox \voidb@x \hbox {\relax \fontsize {7}{8}\selectfont $\leftarrow \joinrel \rhook $}}{}{}Heap()\hspace {0.1cm}{\relax \fontsize {8}{9.5}\selectfont \abovedisplayskip 6\p@ plus2\p@ minus4\p@ \abovedisplayshortskip \z@ plus\p@ \belowdisplayshortskip 3\p@ plus\p@ minus2\p@ \def \leftmargin \leftmargini \parsep 4\p@ plus2\p@ minus\p@ \topsep 8\p@ plus2\p@ minus4\p@ \itemsep 4\p@ plus2\p@ minus\p@ {\leftmargin \leftmargini \topsep 3\p@ plus\p@ minus\p@ \parsep 2\p@ plus\p@ minus\p@ \itemsep \parsep }\belowdisplayskip \abovedisplayskip \ttfamily [2/2]}}{8}{subsubsection.4.1.1.2}
\contentsline {subsection}{\numberline {4.1.2}Member Function Documentation}{9}{subsection.4.1.2}
\contentsline {subsubsection}{\numberline {4.1.2.1}current\discretionary {\unhbox \voidb@x \hbox {\relax \fontsize {7}{8}\selectfont $\leftarrow \joinrel \rhook $}}{}{}\_\discretionary {\unhbox \voidb@x \hbox {\relax \fontsize {7}{8}\selectfont $\leftarrow \joinrel \rhook $}}{}{}heap\discretionary {\unhbox \voidb@x \hbox {\relax \fontsize {7}{8}\selectfont $\leftarrow \joinrel \rhook $}}{}{}\_\discretionary {\unhbox \voidb@x \hbox {\relax \fontsize {7}{8}\selectfont $\leftarrow \joinrel \rhook $}}{}{}pop()}{9}{subsubsection.4.1.2.1}
\contentsline {subsubsection}{\numberline {4.1.2.2}current\discretionary {\unhbox \voidb@x \hbox {\relax \fontsize {7}{8}\selectfont $\leftarrow \joinrel \rhook $}}{}{}\_\discretionary {\unhbox \voidb@x \hbox {\relax \fontsize {7}{8}\selectfont $\leftarrow \joinrel \rhook $}}{}{}heap\discretionary {\unhbox \voidb@x \hbox {\relax \fontsize {7}{8}\selectfont $\leftarrow \joinrel \rhook $}}{}{}\_\discretionary {\unhbox \voidb@x \hbox {\relax \fontsize {7}{8}\selectfont $\leftarrow \joinrel \rhook $}}{}{}push()}{9}{subsubsection.4.1.2.2}
\contentsline {subsubsection}{\numberline {4.1.2.3}current\discretionary {\unhbox \voidb@x \hbox {\relax \fontsize {7}{8}\selectfont $\leftarrow \joinrel \rhook $}}{}{}Size()}{9}{subsubsection.4.1.2.3}
\contentsline {subsubsection}{\numberline {4.1.2.4}curr\discretionary {\unhbox \voidb@x \hbox {\relax \fontsize {7}{8}\selectfont $\leftarrow \joinrel \rhook $}}{}{}Is\discretionary {\unhbox \voidb@x \hbox {\relax \fontsize {7}{8}\selectfont $\leftarrow \joinrel \rhook $}}{}{}Empty()}{10}{subsubsection.4.1.2.4}
\contentsline {subsubsection}{\numberline {4.1.2.5}curr\discretionary {\unhbox \voidb@x \hbox {\relax \fontsize {7}{8}\selectfont $\leftarrow \joinrel \rhook $}}{}{}Is\discretionary {\unhbox \voidb@x \hbox {\relax \fontsize {7}{8}\selectfont $\leftarrow \joinrel \rhook $}}{}{}Full()}{10}{subsubsection.4.1.2.5}
\contentsline {subsubsection}{\numberline {4.1.2.6}is\discretionary {\unhbox \voidb@x \hbox {\relax \fontsize {7}{8}\selectfont $\leftarrow \joinrel \rhook $}}{}{}Empty()}{10}{subsubsection.4.1.2.6}
\contentsline {subsubsection}{\numberline {4.1.2.7}pending\discretionary {\unhbox \voidb@x \hbox {\relax \fontsize {7}{8}\selectfont $\leftarrow \joinrel \rhook $}}{}{}\_\discretionary {\unhbox \voidb@x \hbox {\relax \fontsize {7}{8}\selectfont $\leftarrow \joinrel \rhook $}}{}{}heap\discretionary {\unhbox \voidb@x \hbox {\relax \fontsize {7}{8}\selectfont $\leftarrow \joinrel \rhook $}}{}{}\_\discretionary {\unhbox \voidb@x \hbox {\relax \fontsize {7}{8}\selectfont $\leftarrow \joinrel \rhook $}}{}{}push()}{10}{subsubsection.4.1.2.7}
\contentsline {subsubsection}{\numberline {4.1.2.8}pending\discretionary {\unhbox \voidb@x \hbox {\relax \fontsize {7}{8}\selectfont $\leftarrow \joinrel \rhook $}}{}{}Size()}{11}{subsubsection.4.1.2.8}
\contentsline {section}{\numberline {4.2}file\discretionary {\unhbox \voidb@x \hbox {\relax \fontsize {7}{8}\selectfont $\leftarrow \joinrel \rhook $}}{}{}Data Class Reference}{11}{section.4.2}
\contentsline {subsection}{\numberline {4.2.1}Constructor \& Destructor Documentation}{12}{subsection.4.2.1}
\contentsline {subsubsection}{\numberline {4.2.1.1}file\discretionary {\unhbox \voidb@x \hbox {\relax \fontsize {7}{8}\selectfont $\leftarrow \joinrel \rhook $}}{}{}Data()\hspace {0.1cm}{\relax \fontsize {8}{9.5}\selectfont \abovedisplayskip 6\p@ plus2\p@ minus4\p@ \abovedisplayshortskip \z@ plus\p@ \belowdisplayshortskip 3\p@ plus\p@ minus2\p@ \def \leftmargin \leftmargini \parsep 4\p@ plus2\p@ minus\p@ \topsep 8\p@ plus2\p@ minus4\p@ \itemsep 4\p@ plus2\p@ minus\p@ {\leftmargin \leftmargini \topsep 3\p@ plus\p@ minus\p@ \parsep 2\p@ plus\p@ minus\p@ \itemsep \parsep }\belowdisplayskip \abovedisplayskip \ttfamily [1/2]}}{12}{subsubsection.4.2.1.1}
\contentsline {subsubsection}{\numberline {4.2.1.2}file\discretionary {\unhbox \voidb@x \hbox {\relax \fontsize {7}{8}\selectfont $\leftarrow \joinrel \rhook $}}{}{}Data()\hspace {0.1cm}{\relax \fontsize {8}{9.5}\selectfont \abovedisplayskip 6\p@ plus2\p@ minus4\p@ \abovedisplayshortskip \z@ plus\p@ \belowdisplayshortskip 3\p@ plus\p@ minus2\p@ \def \leftmargin \leftmargini \parsep 4\p@ plus2\p@ minus\p@ \topsep 8\p@ plus2\p@ minus4\p@ \itemsep 4\p@ plus2\p@ minus\p@ {\leftmargin \leftmargini \topsep 3\p@ plus\p@ minus\p@ \parsep 2\p@ plus\p@ minus\p@ \itemsep \parsep }\belowdisplayskip \abovedisplayskip \ttfamily [2/2]}}{12}{subsubsection.4.2.1.2}
\contentsline {subsection}{\numberline {4.2.2}Member Function Documentation}{13}{subsection.4.2.2}
\contentsline {subsubsection}{\numberline {4.2.2.1}clear\discretionary {\unhbox \voidb@x \hbox {\relax \fontsize {7}{8}\selectfont $\leftarrow \joinrel \rhook $}}{}{}\_\discretionary {\unhbox \voidb@x \hbox {\relax \fontsize {7}{8}\selectfont $\leftarrow \joinrel \rhook $}}{}{}data()}{13}{subsubsection.4.2.2.1}
\contentsline {subsubsection}{\numberline {4.2.2.2}operator"!=()}{13}{subsubsection.4.2.2.2}
\contentsline {subsubsection}{\numberline {4.2.2.3}operator$<$()}{13}{subsubsection.4.2.2.3}
\contentsline {subsubsection}{\numberline {4.2.2.4}operator=()}{13}{subsubsection.4.2.2.4}
\contentsline {subsubsection}{\numberline {4.2.2.5}operator==()}{14}{subsubsection.4.2.2.5}
\contentsline {subsubsection}{\numberline {4.2.2.6}operator$>$()}{14}{subsubsection.4.2.2.6}
\contentsline {section}{\numberline {4.3}heap$<$ T $>$ Class Template Reference}{14}{section.4.3}
\contentsline {subsection}{\numberline {4.3.1}Constructor \& Destructor Documentation}{15}{subsection.4.3.1}
\contentsline {subsubsection}{\numberline {4.3.1.1}heap()}{15}{subsubsection.4.3.1.1}
\contentsline {subsection}{\numberline {4.3.2}Member Function Documentation}{15}{subsection.4.3.2}
\contentsline {subsubsection}{\numberline {4.3.2.1}heapify()}{15}{subsubsection.4.3.2.1}
\contentsline {subsubsection}{\numberline {4.3.2.2}pop\discretionary {\unhbox \voidb@x \hbox {\relax \fontsize {7}{8}\selectfont $\leftarrow \joinrel \rhook $}}{}{}Root()}{15}{subsubsection.4.3.2.2}
\contentsline {chapter}{\numberline {5}File Documentation}{17}{chapter.5}
\contentsline {section}{\numberline {5.1}lib/b2b\discretionary {\unhbox \voidb@x \hbox {\relax \fontsize {7}{8}\selectfont $\leftarrow \joinrel \rhook $}}{}{}Heap.h File Reference}{17}{section.5.1}
\contentsline {subsection}{\numberline {5.1.1}Detailed Description}{18}{subsection.5.1.1}
\contentsline {section}{\numberline {5.2}lib/file\discretionary {\unhbox \voidb@x \hbox {\relax \fontsize {7}{8}\selectfont $\leftarrow \joinrel \rhook $}}{}{}Data.cpp File Reference}{18}{section.5.2}
\contentsline {subsection}{\numberline {5.2.1}Detailed Description}{19}{subsection.5.2.1}
\contentsline {section}{\numberline {5.3}lib/file\discretionary {\unhbox \voidb@x \hbox {\relax \fontsize {7}{8}\selectfont $\leftarrow \joinrel \rhook $}}{}{}Data.h File Reference}{19}{section.5.3}
\contentsline {subsection}{\numberline {5.3.1}Detailed Description}{20}{subsection.5.3.1}
\contentsline {section}{\numberline {5.4}lib/heap.h File Reference}{20}{section.5.4}
\contentsline {subsection}{\numberline {5.4.1}Detailed Description}{21}{subsection.5.4.1}
\contentsline {subsection}{\numberline {5.4.2}Macro Definition Documentation}{21}{subsection.5.4.2}
\contentsline {subsubsection}{\numberline {5.4.2.1}F\discretionary {\unhbox \voidb@x \hbox {\relax \fontsize {7}{8}\selectfont $\leftarrow \joinrel \rhook $}}{}{}I\discretionary {\unhbox \voidb@x \hbox {\relax \fontsize {7}{8}\selectfont $\leftarrow \joinrel \rhook $}}{}{}N\discretionary {\unhbox \voidb@x \hbox {\relax \fontsize {7}{8}\selectfont $\leftarrow \joinrel \rhook $}}{}{}D\discretionary {\unhbox \voidb@x \hbox {\relax \fontsize {7}{8}\selectfont $\leftarrow \joinrel \rhook $}}{}{}\_\discretionary {\unhbox \voidb@x \hbox {\relax \fontsize {7}{8}\selectfont $\leftarrow \joinrel \rhook $}}{}{}\discretionary {\unhbox \voidb@x \hbox {\relax \fontsize {7}{8}\selectfont $\leftarrow \joinrel \rhook $}}{}{}C\discretionary {\unhbox \voidb@x \hbox {\relax \fontsize {7}{8}\selectfont $\leftarrow \joinrel \rhook $}}{}{}H\discretionary {\unhbox \voidb@x \hbox {\relax \fontsize {7}{8}\selectfont $\leftarrow \joinrel \rhook $}}{}{}I\discretionary {\unhbox \voidb@x \hbox {\relax \fontsize {7}{8}\selectfont $\leftarrow \joinrel \rhook $}}{}{}L\discretionary {\unhbox \voidb@x \hbox {\relax \fontsize {7}{8}\selectfont $\leftarrow \joinrel \rhook $}}{}{}D\discretionary {\unhbox \voidb@x \hbox {\relax \fontsize {7}{8}\selectfont $\leftarrow \joinrel \rhook $}}{}{}\_\discretionary {\unhbox \voidb@x \hbox {\relax \fontsize {7}{8}\selectfont $\leftarrow \joinrel \rhook $}}{}{}L}{21}{subsubsection.5.4.2.1}
\contentsline {subsubsection}{\numberline {5.4.2.2}F\discretionary {\unhbox \voidb@x \hbox {\relax \fontsize {7}{8}\selectfont $\leftarrow \joinrel \rhook $}}{}{}I\discretionary {\unhbox \voidb@x \hbox {\relax \fontsize {7}{8}\selectfont $\leftarrow \joinrel \rhook $}}{}{}N\discretionary {\unhbox \voidb@x \hbox {\relax \fontsize {7}{8}\selectfont $\leftarrow \joinrel \rhook $}}{}{}D\discretionary {\unhbox \voidb@x \hbox {\relax \fontsize {7}{8}\selectfont $\leftarrow \joinrel \rhook $}}{}{}\_\discretionary {\unhbox \voidb@x \hbox {\relax \fontsize {7}{8}\selectfont $\leftarrow \joinrel \rhook $}}{}{}\discretionary {\unhbox \voidb@x \hbox {\relax \fontsize {7}{8}\selectfont $\leftarrow \joinrel \rhook $}}{}{}C\discretionary {\unhbox \voidb@x \hbox {\relax \fontsize {7}{8}\selectfont $\leftarrow \joinrel \rhook $}}{}{}H\discretionary {\unhbox \voidb@x \hbox {\relax \fontsize {7}{8}\selectfont $\leftarrow \joinrel \rhook $}}{}{}I\discretionary {\unhbox \voidb@x \hbox {\relax \fontsize {7}{8}\selectfont $\leftarrow \joinrel \rhook $}}{}{}L\discretionary {\unhbox \voidb@x \hbox {\relax \fontsize {7}{8}\selectfont $\leftarrow \joinrel \rhook $}}{}{}D\discretionary {\unhbox \voidb@x \hbox {\relax \fontsize {7}{8}\selectfont $\leftarrow \joinrel \rhook $}}{}{}\_\discretionary {\unhbox \voidb@x \hbox {\relax \fontsize {7}{8}\selectfont $\leftarrow \joinrel \rhook $}}{}{}R}{21}{subsubsection.5.4.2.2}
\contentsline {subsubsection}{\numberline {5.4.2.3}F\discretionary {\unhbox \voidb@x \hbox {\relax \fontsize {7}{8}\selectfont $\leftarrow \joinrel \rhook $}}{}{}I\discretionary {\unhbox \voidb@x \hbox {\relax \fontsize {7}{8}\selectfont $\leftarrow \joinrel \rhook $}}{}{}N\discretionary {\unhbox \voidb@x \hbox {\relax \fontsize {7}{8}\selectfont $\leftarrow \joinrel \rhook $}}{}{}D\discretionary {\unhbox \voidb@x \hbox {\relax \fontsize {7}{8}\selectfont $\leftarrow \joinrel \rhook $}}{}{}\_\discretionary {\unhbox \voidb@x \hbox {\relax \fontsize {7}{8}\selectfont $\leftarrow \joinrel \rhook $}}{}{}\discretionary {\unhbox \voidb@x \hbox {\relax \fontsize {7}{8}\selectfont $\leftarrow \joinrel \rhook $}}{}{}P\discretionary {\unhbox \voidb@x \hbox {\relax \fontsize {7}{8}\selectfont $\leftarrow \joinrel \rhook $}}{}{}A\discretionary {\unhbox \voidb@x \hbox {\relax \fontsize {7}{8}\selectfont $\leftarrow \joinrel \rhook $}}{}{}R\discretionary {\unhbox \voidb@x \hbox {\relax \fontsize {7}{8}\selectfont $\leftarrow \joinrel \rhook $}}{}{}E\discretionary {\unhbox \voidb@x \hbox {\relax \fontsize {7}{8}\selectfont $\leftarrow \joinrel \rhook $}}{}{}NT}{21}{subsubsection.5.4.2.3}
\contentsline {section}{\numberline {5.5}Rep\discretionary {\unhbox \voidb@x \hbox {\relax \fontsize {7}{8}\selectfont $\leftarrow \joinrel \rhook $}}{}{}Sel\discretionary {\unhbox \voidb@x \hbox {\relax \fontsize {7}{8}\selectfont $\leftarrow \joinrel \rhook $}}{}{}\_\discretionary {\unhbox \voidb@x \hbox {\relax \fontsize {7}{8}\selectfont $\leftarrow \joinrel \rhook $}}{}{}\discretionary {\unhbox \voidb@x \hbox {\relax \fontsize {7}{8}\selectfont $\leftarrow \joinrel \rhook $}}{}{}Algorithm.\discretionary {\unhbox \voidb@x \hbox {\relax \fontsize {7}{8}\selectfont $\leftarrow \joinrel \rhook $}}{}{}cpp File Reference}{22}{section.5.5}
\contentsline {subsection}{\numberline {5.5.1}Detailed Description}{23}{subsection.5.5.1}
\contentsline {subsection}{\numberline {5.5.2}Function Documentation}{24}{subsection.5.5.2}
\contentsline {subsubsection}{\numberline {5.5.2.1}main()}{24}{subsubsection.5.5.2.1}
\contentsline {subsubsection}{\numberline {5.5.2.2}merge\discretionary {\unhbox \voidb@x \hbox {\relax \fontsize {7}{8}\selectfont $\leftarrow \joinrel \rhook $}}{}{}K\discretionary {\unhbox \voidb@x \hbox {\relax \fontsize {7}{8}\selectfont $\leftarrow \joinrel \rhook $}}{}{}Way()}{24}{subsubsection.5.5.2.2}
\contentsline {chapter}{Index}{27}{section*.27}
