\relax 
\providecommand\hyper@newdestlabel[2]{}
\providecommand\HyperFirstAtBeginDocument{\AtBeginDocument}
\HyperFirstAtBeginDocument{\ifx\hyper@anchor\@undefined
\global\let\oldcontentsline\contentsline
\gdef\contentsline#1#2#3#4{\oldcontentsline{#1}{#2}{#3}}
\global\let\oldnewlabel\newlabel
\gdef\newlabel#1#2{\newlabelxx{#1}#2}
\gdef\newlabelxx#1#2#3#4#5#6{\oldnewlabel{#1}{{#2}{#3}}}
\AtEndDocument{\ifx\hyper@anchor\@undefined
\let\contentsline\oldcontentsline
\let\newlabel\oldnewlabel
\fi}
\fi}
\global\let\hyper@last\relax 
\gdef\HyperFirstAtBeginDocument#1{#1}
\providecommand\HyField@AuxAddToFields[1]{}
\providecommand\HyField@AuxAddToCoFields[2]{}
\providecommand \oddpage@label [2]{}
\@writefile{toc}{\contentsline {chapter}{\numberline {1}Main Page}{1}{chapter.1}}
\@writefile{lof}{\addvspace {10\p@ }}
\@writefile{lot}{\addvspace {10\p@ }}
\newlabel{index}{{1}{1}{Main Page}{chapter.1}{}}
\@writefile{toc}{\contentsline {chapter}{\numberline {2}Class Index}{3}{chapter.2}}
\@writefile{lof}{\addvspace {10\p@ }}
\@writefile{lot}{\addvspace {10\p@ }}
\@writefile{toc}{\contentsline {section}{\numberline {2.1}Class List}{3}{section.2.1}}
\@writefile{toc}{\contentsline {chapter}{\numberline {3}File Index}{5}{chapter.3}}
\@writefile{lof}{\addvspace {10\p@ }}
\@writefile{lot}{\addvspace {10\p@ }}
\@writefile{toc}{\contentsline {section}{\numberline {3.1}File List}{5}{section.3.1}}
\@writefile{toc}{\contentsline {chapter}{\numberline {4}Class Documentation}{7}{chapter.4}}
\@writefile{lof}{\addvspace {10\p@ }}
\@writefile{lot}{\addvspace {10\p@ }}
\@writefile{toc}{\contentsline {section}{\numberline {4.1}b2b\discretionary {\unhbox \voidb@x \hbox {\relax \fontsize  {7}{8}\selectfont  $\leftarrow \joinrel  \rhook $}}{}{}Heap$<$ T $>$ Class Template Reference}{7}{section.4.1}}
\newlabel{classb2b_heap}{{4.1}{7}{b2b\+Heap$<$ T $>$ Class Template Reference}{section.4.1}{}}
\newlabel{classb2b_heap_a341af88bf1d2d1edc5e5e0bdb5385734}{{4.1}{8}{Public Member Functions}{section*.3}{}}
\newlabel{classb2b_heap_a755955d7c51c7231871252e95fe33c03}{{4.1}{8}{Public Member Functions}{section*.3}{}}
\newlabel{classb2b_heap_a8f9d72e453c9fd51b333d2006d5058a5}{{4.1}{8}{Public Member Functions}{section*.3}{}}
\@writefile{toc}{\contentsline {subsection}{\numberline {4.1.1}Constructor \& Destructor Documentation}{8}{subsection.4.1.1}}
\newlabel{classb2b_heap_a96cd42f71b0830084b3e5c147c79eb93}{{4.1.1}{8}{Constructor \& Destructor Documentation}{subsection.4.1.1}{}}
\@writefile{toc}{\contentsline {subsubsection}{\numberline {4.1.1.1}b2b\discretionary {\unhbox \voidb@x \hbox {\relax \fontsize  {7}{8}\selectfont  $\leftarrow \joinrel  \rhook $}}{}{}Heap()\hspace  {0.1cm}{\relax \fontsize  {8}{9.5}\selectfont  \abovedisplayskip 6\p@ plus2\p@ minus4\p@ \abovedisplayshortskip \z@ plus\p@ \belowdisplayshortskip 3\p@ plus\p@ minus2\p@ \def \leftmargin \leftmargini \parsep 4\p@ plus2\p@ minus\p@ \topsep 8\p@ plus2\p@ minus4\p@ \itemsep 4\p@ plus2\p@ minus\p@ {\leftmargin \leftmargini \topsep 3\p@ plus\p@ minus\p@ \parsep 2\p@ plus\p@ minus\p@ \itemsep \parsep }\belowdisplayskip \abovedisplayskip \ttfamily  [1/2]}}{8}{subsubsection.4.1.1.1}}
\newlabel{classb2b_heap_af40c4a009fc5520f5ddfffbe03a12010}{{4.1.1.1}{8}{\texorpdfstring {b2b\+Heap()}{b2bHeap()}\hspace {0.1cm}{\footnotesize \ttfamily [1/2]}}{subsubsection.4.1.1.1}{}}
\@writefile{toc}{\contentsline {subsubsection}{\numberline {4.1.1.2}b2b\discretionary {\unhbox \voidb@x \hbox {\relax \fontsize  {7}{8}\selectfont  $\leftarrow \joinrel  \rhook $}}{}{}Heap()\hspace  {0.1cm}{\relax \fontsize  {8}{9.5}\selectfont  \abovedisplayskip 6\p@ plus2\p@ minus4\p@ \abovedisplayshortskip \z@ plus\p@ \belowdisplayshortskip 3\p@ plus\p@ minus2\p@ \def \leftmargin \leftmargini \parsep 4\p@ plus2\p@ minus\p@ \topsep 8\p@ plus2\p@ minus4\p@ \itemsep 4\p@ plus2\p@ minus\p@ {\leftmargin \leftmargini \topsep 3\p@ plus\p@ minus\p@ \parsep 2\p@ plus\p@ minus\p@ \itemsep \parsep }\belowdisplayskip \abovedisplayskip \ttfamily  [2/2]}}{8}{subsubsection.4.1.1.2}}
\gdef \LT@i {\LT@entry 
    {3}{28.66687pt}\LT@entry 
    {3}{123.74565pt}}
\gdef \LT@ii {\LT@entry 
    {3}{24.79999pt}\LT@entry 
    {3}{61.73712pt}\LT@entry 
    {3}{128.29045pt}}
\@writefile{toc}{\contentsline {subsection}{\numberline {4.1.2}Member Function Documentation}{9}{subsection.4.1.2}}
\newlabel{classb2b_heap_a5c0dbb079a1b808f885d427b4e461422}{{4.1.2}{9}{Member Function Documentation}{subsection.4.1.2}{}}
\@writefile{toc}{\contentsline {subsubsection}{\numberline {4.1.2.1}current\discretionary {\unhbox \voidb@x \hbox {\relax \fontsize  {7}{8}\selectfont  $\leftarrow \joinrel  \rhook $}}{}{}\_\discretionary {\unhbox \voidb@x \hbox {\relax \fontsize  {7}{8}\selectfont  $\leftarrow \joinrel  \rhook $}}{}{}heap\discretionary {\unhbox \voidb@x \hbox {\relax \fontsize  {7}{8}\selectfont  $\leftarrow \joinrel  \rhook $}}{}{}\_\discretionary {\unhbox \voidb@x \hbox {\relax \fontsize  {7}{8}\selectfont  $\leftarrow \joinrel  \rhook $}}{}{}pop()}{9}{subsubsection.4.1.2.1}}
\newlabel{classb2b_heap_addd605ce5a35df5f614ca1509fafb5f0}{{4.1.2.1}{9}{\texorpdfstring {current\+\_\+heap\+\_\+pop()}{current\_heap\_pop()}}{subsubsection.4.1.2.1}{}}
\@writefile{toc}{\contentsline {subsubsection}{\numberline {4.1.2.2}current\discretionary {\unhbox \voidb@x \hbox {\relax \fontsize  {7}{8}\selectfont  $\leftarrow \joinrel  \rhook $}}{}{}\_\discretionary {\unhbox \voidb@x \hbox {\relax \fontsize  {7}{8}\selectfont  $\leftarrow \joinrel  \rhook $}}{}{}heap\discretionary {\unhbox \voidb@x \hbox {\relax \fontsize  {7}{8}\selectfont  $\leftarrow \joinrel  \rhook $}}{}{}\_\discretionary {\unhbox \voidb@x \hbox {\relax \fontsize  {7}{8}\selectfont  $\leftarrow \joinrel  \rhook $}}{}{}push()}{9}{subsubsection.4.1.2.2}}
\newlabel{classb2b_heap_afdc172ab60cb07eae03868dd39a7c90f}{{4.1.2.2}{9}{\texorpdfstring {current\+\_\+heap\+\_\+push()}{current\_heap\_push()}}{table.4.2}{}}
\@writefile{toc}{\contentsline {subsubsection}{\numberline {4.1.2.3}current\discretionary {\unhbox \voidb@x \hbox {\relax \fontsize  {7}{8}\selectfont  $\leftarrow \joinrel  \rhook $}}{}{}Size()}{9}{subsubsection.4.1.2.3}}
\newlabel{classb2b_heap_ac217ccd2e93c5046b8bf9ecf19638176}{{4.1.2.3}{9}{\texorpdfstring {current\+Size()}{currentSize()}}{subsubsection.4.1.2.3}{}}
\@writefile{toc}{\contentsline {subsubsection}{\numberline {4.1.2.4}curr\discretionary {\unhbox \voidb@x \hbox {\relax \fontsize  {7}{8}\selectfont  $\leftarrow \joinrel  \rhook $}}{}{}Is\discretionary {\unhbox \voidb@x \hbox {\relax \fontsize  {7}{8}\selectfont  $\leftarrow \joinrel  \rhook $}}{}{}Empty()}{10}{subsubsection.4.1.2.4}}
\newlabel{classb2b_heap_af3d646b53445239e8879fb0f66b55f7c}{{4.1.2.4}{10}{\texorpdfstring {curr\+Is\+Empty()}{currIsEmpty()}}{subsubsection.4.1.2.4}{}}
\@writefile{toc}{\contentsline {subsubsection}{\numberline {4.1.2.5}curr\discretionary {\unhbox \voidb@x \hbox {\relax \fontsize  {7}{8}\selectfont  $\leftarrow \joinrel  \rhook $}}{}{}Is\discretionary {\unhbox \voidb@x \hbox {\relax \fontsize  {7}{8}\selectfont  $\leftarrow \joinrel  \rhook $}}{}{}Full()}{10}{subsubsection.4.1.2.5}}
\newlabel{classb2b_heap_a250352b1ef58047d90292ccc36f206e9}{{4.1.2.5}{10}{\texorpdfstring {curr\+Is\+Full()}{currIsFull()}}{subsubsection.4.1.2.5}{}}
\@writefile{toc}{\contentsline {subsubsection}{\numberline {4.1.2.6}is\discretionary {\unhbox \voidb@x \hbox {\relax \fontsize  {7}{8}\selectfont  $\leftarrow \joinrel  \rhook $}}{}{}Empty()}{10}{subsubsection.4.1.2.6}}
\newlabel{classb2b_heap_afba56ecca207ade87452df54365a481d}{{4.1.2.6}{10}{\texorpdfstring {is\+Empty()}{isEmpty()}}{subsubsection.4.1.2.6}{}}
\@writefile{toc}{\contentsline {subsubsection}{\numberline {4.1.2.7}pending\discretionary {\unhbox \voidb@x \hbox {\relax \fontsize  {7}{8}\selectfont  $\leftarrow \joinrel  \rhook $}}{}{}\_\discretionary {\unhbox \voidb@x \hbox {\relax \fontsize  {7}{8}\selectfont  $\leftarrow \joinrel  \rhook $}}{}{}heap\discretionary {\unhbox \voidb@x \hbox {\relax \fontsize  {7}{8}\selectfont  $\leftarrow \joinrel  \rhook $}}{}{}\_\discretionary {\unhbox \voidb@x \hbox {\relax \fontsize  {7}{8}\selectfont  $\leftarrow \joinrel  \rhook $}}{}{}push()}{10}{subsubsection.4.1.2.7}}
\gdef \LT@iii {\LT@entry 
    {3}{24.79999pt}\LT@entry 
    {3}{61.73712pt}\LT@entry 
    {3}{198.35379pt}}
\newlabel{classb2b_heap_ab3665051e319dc0ea9a2224e78f1411c}{{4.1.2.7}{11}{\texorpdfstring {pending\+\_\+heap\+\_\+push()}{pending\_heap\_push()}}{table.4.3}{}}
\@writefile{toc}{\contentsline {subsubsection}{\numberline {4.1.2.8}pending\discretionary {\unhbox \voidb@x \hbox {\relax \fontsize  {7}{8}\selectfont  $\leftarrow \joinrel  \rhook $}}{}{}Size()}{11}{subsubsection.4.1.2.8}}
\@writefile{toc}{\contentsline {section}{\numberline {4.2}file\discretionary {\unhbox \voidb@x \hbox {\relax \fontsize  {7}{8}\selectfont  $\leftarrow \joinrel  \rhook $}}{}{}Data Class Reference}{11}{section.4.2}}
\newlabel{classfile_data}{{4.2}{11}{file\+Data Class Reference}{section.4.2}{}}
\newlabel{classfile_data_af3b04e0d5a2fe1a7457292b59fc6abce}{{4.2}{12}{Public Attributes}{section*.6}{}}
\newlabel{classfile_data_a899d3fab68e0976bce18491d0fbc2555}{{4.2}{12}{Public Attributes}{section*.6}{}}
\newlabel{classfile_data_a358a7e92d934d7e2c16e643ef81a3a43}{{4.2}{12}{Public Attributes}{section*.6}{}}
\newlabel{classfile_data_afc1d0fffe47e5a56e44ddb6cb09d15f9}{{4.2}{12}{Public Attributes}{section*.6}{}}
\@writefile{toc}{\contentsline {subsection}{\numberline {4.2.1}Constructor \& Destructor Documentation}{12}{subsection.4.2.1}}
\newlabel{classfile_data_a7b7e1372ffcd7da345cd6e1e0b341d41}{{4.2.1}{12}{Constructor \& Destructor Documentation}{subsection.4.2.1}{}}
\@writefile{toc}{\contentsline {subsubsection}{\numberline {4.2.1.1}file\discretionary {\unhbox \voidb@x \hbox {\relax \fontsize  {7}{8}\selectfont  $\leftarrow \joinrel  \rhook $}}{}{}Data()\hspace  {0.1cm}{\relax \fontsize  {8}{9.5}\selectfont  \abovedisplayskip 6\p@ plus2\p@ minus4\p@ \abovedisplayshortskip \z@ plus\p@ \belowdisplayshortskip 3\p@ plus\p@ minus2\p@ \def \leftmargin \leftmargini \parsep 4\p@ plus2\p@ minus\p@ \topsep 8\p@ plus2\p@ minus4\p@ \itemsep 4\p@ plus2\p@ minus\p@ {\leftmargin \leftmargini \topsep 3\p@ plus\p@ minus\p@ \parsep 2\p@ plus\p@ minus\p@ \itemsep \parsep }\belowdisplayskip \abovedisplayskip \ttfamily  [1/2]}}{12}{subsubsection.4.2.1.1}}
\newlabel{classfile_data_a5db9e0cb5393b00bb4ac19a2c1c2de04}{{4.2.1.1}{12}{\texorpdfstring {file\+Data()}{fileData()}\hspace {0.1cm}{\footnotesize \ttfamily [1/2]}}{subsubsection.4.2.1.1}{}}
\@writefile{toc}{\contentsline {subsubsection}{\numberline {4.2.1.2}file\discretionary {\unhbox \voidb@x \hbox {\relax \fontsize  {7}{8}\selectfont  $\leftarrow \joinrel  \rhook $}}{}{}Data()\hspace  {0.1cm}{\relax \fontsize  {8}{9.5}\selectfont  \abovedisplayskip 6\p@ plus2\p@ minus4\p@ \abovedisplayshortskip \z@ plus\p@ \belowdisplayshortskip 3\p@ plus\p@ minus2\p@ \def \leftmargin \leftmargini \parsep 4\p@ plus2\p@ minus\p@ \topsep 8\p@ plus2\p@ minus4\p@ \itemsep 4\p@ plus2\p@ minus\p@ {\leftmargin \leftmargini \topsep 3\p@ plus\p@ minus\p@ \parsep 2\p@ plus\p@ minus\p@ \itemsep \parsep }\belowdisplayskip \abovedisplayskip \ttfamily  [2/2]}}{12}{subsubsection.4.2.1.2}}
\gdef \LT@iv {\LT@entry 
    {3}{35.30861pt}\LT@entry 
    {3}{239.91493pt}}
\@writefile{toc}{\contentsline {subsection}{\numberline {4.2.2}Member Function Documentation}{13}{subsection.4.2.2}}
\newlabel{classfile_data_a50bc367c27411bc795098942c026ac94}{{4.2.2}{13}{Member Function Documentation}{subsection.4.2.2}{}}
\@writefile{toc}{\contentsline {subsubsection}{\numberline {4.2.2.1}clear\discretionary {\unhbox \voidb@x \hbox {\relax \fontsize  {7}{8}\selectfont  $\leftarrow \joinrel  \rhook $}}{}{}\_\discretionary {\unhbox \voidb@x \hbox {\relax \fontsize  {7}{8}\selectfont  $\leftarrow \joinrel  \rhook $}}{}{}data()}{13}{subsubsection.4.2.2.1}}
\newlabel{classfile_data_abd13d23ea3cae618841e736d70602066}{{4.2.2.1}{13}{\texorpdfstring {clear\+\_\+data()}{clear\_data()}}{subsubsection.4.2.2.1}{}}
\@writefile{toc}{\contentsline {subsubsection}{\numberline {4.2.2.2}operator"!=()}{13}{subsubsection.4.2.2.2}}
\newlabel{classfile_data_ab8d8ed55ea1c19ce8969454351683693}{{4.2.2.2}{13}{\texorpdfstring {operator"!=()}{operator!=()}}{subsubsection.4.2.2.2}{}}
\@writefile{toc}{\contentsline {subsubsection}{\numberline {4.2.2.3}operator$<$()}{13}{subsubsection.4.2.2.3}}
\newlabel{classfile_data_ad19e849f19e1050a0cd3e73965f104eb}{{4.2.2.3}{13}{\texorpdfstring {operator$<$()}{operator<()}}{subsubsection.4.2.2.3}{}}
\@writefile{toc}{\contentsline {subsubsection}{\numberline {4.2.2.4}operator=()}{13}{subsubsection.4.2.2.4}}
\newlabel{classfile_data_ad2fb31886cdc9bfc8152cb6276b3698c}{{4.2.2.4}{13}{\texorpdfstring {operator=()}{operator=()}}{subsubsection.4.2.2.4}{}}
\@writefile{toc}{\contentsline {subsubsection}{\numberline {4.2.2.5}operator==()}{14}{subsubsection.4.2.2.5}}
\newlabel{classfile_data_a2b62a62a5bfc117bcf3b44e6db7cf8dc}{{4.2.2.5}{14}{\texorpdfstring {operator==()}{operator==()}}{subsubsection.4.2.2.5}{}}
\@writefile{toc}{\contentsline {subsubsection}{\numberline {4.2.2.6}operator$>$()}{14}{subsubsection.4.2.2.6}}
\@writefile{toc}{\contentsline {section}{\numberline {4.3}heap$<$ T $>$ Class Template Reference}{14}{section.4.3}}
\newlabel{classheap}{{4.3}{14}{heap$<$ T $>$ Class Template Reference}{section.4.3}{}}
\newlabel{classheap_a3f40e4282b9e1b71b75c060bd66f1711}{{4.3}{15}{Public Member Functions}{section*.8}{}}
\newlabel{classheap_acf3e8aa00bb0e32f521023e9a77c9a42}{{4.3}{15}{Public Member Functions}{section*.8}{}}
\newlabel{classheap_a566f56aff9498fc979fa1e8e65531680}{{4.3}{15}{Public Member Functions}{section*.8}{}}
\newlabel{classheap_aa8764972d059799c6166bc9de6fbfcd7}{{4.3}{15}{Public Member Functions}{section*.8}{}}
\@writefile{toc}{\contentsline {subsection}{\numberline {4.3.1}Constructor \& Destructor Documentation}{15}{subsection.4.3.1}}
\newlabel{classheap_a7c957dafa9d5d5e92dfd6eb9c59e3cf3}{{4.3.1}{15}{Constructor \& Destructor Documentation}{subsection.4.3.1}{}}
\@writefile{toc}{\contentsline {subsubsection}{\numberline {4.3.1.1}heap()}{15}{subsubsection.4.3.1.1}}
\@writefile{toc}{\contentsline {subsection}{\numberline {4.3.2}Member Function Documentation}{15}{subsection.4.3.2}}
\newlabel{classheap_ac1d1396932b47222657f02944eb67d17}{{4.3.2}{15}{Member Function Documentation}{subsection.4.3.2}{}}
\@writefile{toc}{\contentsline {subsubsection}{\numberline {4.3.2.1}heapify()}{15}{subsubsection.4.3.2.1}}
\newlabel{classheap_a651f76502d9da0a955f8ecb54e0428e7}{{4.3.2.1}{15}{\texorpdfstring {heapify()}{heapify()}}{subsubsection.4.3.2.1}{}}
\@writefile{toc}{\contentsline {subsubsection}{\numberline {4.3.2.2}pop\discretionary {\unhbox \voidb@x \hbox {\relax \fontsize  {7}{8}\selectfont  $\leftarrow \joinrel  \rhook $}}{}{}Root()}{15}{subsubsection.4.3.2.2}}
\@writefile{toc}{\contentsline {chapter}{\numberline {5}File Documentation}{17}{chapter.5}}
\@writefile{lof}{\addvspace {10\p@ }}
\@writefile{lot}{\addvspace {10\p@ }}
\@writefile{toc}{\contentsline {section}{\numberline {5.1}lib/b2b\discretionary {\unhbox \voidb@x \hbox {\relax \fontsize  {7}{8}\selectfont  $\leftarrow \joinrel  \rhook $}}{}{}Heap.h File Reference}{17}{section.5.1}}
\newlabel{b2b_heap_8h}{{5.1}{17}{lib/b2b\+Heap.h File Reference}{section.5.1}{}}
\newlabel{b2b_heap_8h_a492c6ccf2bde2bebcd32e73e0933ee92}{{5.1}{18}{Macros}{section*.12}{}}
\newlabel{b2b_heap_8h_a437ef08681e7210d6678427030446a54}{{5.1}{18}{Macros}{section*.12}{}}
\newlabel{b2b_heap_8h_a80fb826a684cf3f0d306b22aa100ddac}{{5.1}{18}{Macros}{section*.12}{}}
\newlabel{b2b_heap_8h_a3018c7600b7bb9866400596a56a57af7}{{5.1}{18}{Macros}{section*.12}{}}
\newlabel{b2b_heap_8h_adef009463da4cb8830d068bfca830196}{{5.1}{18}{Macros}{section*.12}{}}
\newlabel{b2b_heap_8h_a5db10cdba2911a5a8c77ead0a04a7913}{{5.1}{18}{Macros}{section*.12}{}}
\newlabel{b2b_heap_8h_ad70f10cbeea718a8fdeb5083b0b1b8eb}{{5.1}{18}{Macros}{section*.12}{}}
\newlabel{b2b_heap_8h_a8376b72c7471efeea1270b4a1df1f446}{{5.1}{18}{Macros}{section*.12}{}}
\newlabel{b2b_heap_8h_a39c1815d5efd69ae2e169c16dc590c0b}{{5.1}{18}{Macros}{section*.12}{}}
\@writefile{toc}{\contentsline {subsection}{\numberline {5.1.1}Detailed Description}{18}{subsection.5.1.1}}
\@writefile{toc}{\contentsline {section}{\numberline {5.2}lib/file\discretionary {\unhbox \voidb@x \hbox {\relax \fontsize  {7}{8}\selectfont  $\leftarrow \joinrel  \rhook $}}{}{}Data.cpp File Reference}{18}{section.5.2}}
\newlabel{file_data_8cpp}{{5.2}{18}{lib/file\+Data.cpp File Reference}{section.5.2}{}}
\@writefile{toc}{\contentsline {subsection}{\numberline {5.2.1}Detailed Description}{19}{subsection.5.2.1}}
\@writefile{toc}{\contentsline {section}{\numberline {5.3}lib/file\discretionary {\unhbox \voidb@x \hbox {\relax \fontsize  {7}{8}\selectfont  $\leftarrow \joinrel  \rhook $}}{}{}Data.h File Reference}{19}{section.5.3}}
\newlabel{file_data_8h}{{5.3}{19}{lib/file\+Data.h File Reference}{section.5.3}{}}
\@writefile{toc}{\contentsline {subsection}{\numberline {5.3.1}Detailed Description}{20}{subsection.5.3.1}}
\@writefile{toc}{\contentsline {section}{\numberline {5.4}lib/heap.h File Reference}{20}{section.5.4}}
\newlabel{heap_8h}{{5.4}{20}{lib/heap.h File Reference}{section.5.4}{}}
\newlabel{heap_8h_ad4df4e909e0813524fd2914ffe902d53}{{5.4}{21}{Macros}{section*.20}{}}
\@writefile{toc}{\contentsline {subsection}{\numberline {5.4.1}Detailed Description}{21}{subsection.5.4.1}}
\@writefile{toc}{\contentsline {subsection}{\numberline {5.4.2}Macro Definition Documentation}{21}{subsection.5.4.2}}
\newlabel{heap_8h_a8376b72c7471efeea1270b4a1df1f446}{{5.4.2}{21}{Macro Definition Documentation}{subsection.5.4.2}{}}
\@writefile{toc}{\contentsline {subsubsection}{\numberline {5.4.2.1}F\discretionary {\unhbox \voidb@x \hbox {\relax \fontsize  {7}{8}\selectfont  $\leftarrow \joinrel  \rhook $}}{}{}I\discretionary {\unhbox \voidb@x \hbox {\relax \fontsize  {7}{8}\selectfont  $\leftarrow \joinrel  \rhook $}}{}{}N\discretionary {\unhbox \voidb@x \hbox {\relax \fontsize  {7}{8}\selectfont  $\leftarrow \joinrel  \rhook $}}{}{}D\discretionary {\unhbox \voidb@x \hbox {\relax \fontsize  {7}{8}\selectfont  $\leftarrow \joinrel  \rhook $}}{}{}\_\discretionary {\unhbox \voidb@x \hbox {\relax \fontsize  {7}{8}\selectfont  $\leftarrow \joinrel  \rhook $}}{}{}\discretionary {\unhbox \voidb@x \hbox {\relax \fontsize  {7}{8}\selectfont  $\leftarrow \joinrel  \rhook $}}{}{}C\discretionary {\unhbox \voidb@x \hbox {\relax \fontsize  {7}{8}\selectfont  $\leftarrow \joinrel  \rhook $}}{}{}H\discretionary {\unhbox \voidb@x \hbox {\relax \fontsize  {7}{8}\selectfont  $\leftarrow \joinrel  \rhook $}}{}{}I\discretionary {\unhbox \voidb@x \hbox {\relax \fontsize  {7}{8}\selectfont  $\leftarrow \joinrel  \rhook $}}{}{}L\discretionary {\unhbox \voidb@x \hbox {\relax \fontsize  {7}{8}\selectfont  $\leftarrow \joinrel  \rhook $}}{}{}D\discretionary {\unhbox \voidb@x \hbox {\relax \fontsize  {7}{8}\selectfont  $\leftarrow \joinrel  \rhook $}}{}{}\_\discretionary {\unhbox \voidb@x \hbox {\relax \fontsize  {7}{8}\selectfont  $\leftarrow \joinrel  \rhook $}}{}{}L}{21}{subsubsection.5.4.2.1}}
\newlabel{heap_8h_a39c1815d5efd69ae2e169c16dc590c0b}{{5.4.2.1}{21}{\texorpdfstring {F\+I\+N\+D\+\_\+\+C\+H\+I\+L\+D\+\_\+L}{FIND\_CHILD\_L}}{subsubsection.5.4.2.1}{}}
\@writefile{toc}{\contentsline {subsubsection}{\numberline {5.4.2.2}F\discretionary {\unhbox \voidb@x \hbox {\relax \fontsize  {7}{8}\selectfont  $\leftarrow \joinrel  \rhook $}}{}{}I\discretionary {\unhbox \voidb@x \hbox {\relax \fontsize  {7}{8}\selectfont  $\leftarrow \joinrel  \rhook $}}{}{}N\discretionary {\unhbox \voidb@x \hbox {\relax \fontsize  {7}{8}\selectfont  $\leftarrow \joinrel  \rhook $}}{}{}D\discretionary {\unhbox \voidb@x \hbox {\relax \fontsize  {7}{8}\selectfont  $\leftarrow \joinrel  \rhook $}}{}{}\_\discretionary {\unhbox \voidb@x \hbox {\relax \fontsize  {7}{8}\selectfont  $\leftarrow \joinrel  \rhook $}}{}{}\discretionary {\unhbox \voidb@x \hbox {\relax \fontsize  {7}{8}\selectfont  $\leftarrow \joinrel  \rhook $}}{}{}C\discretionary {\unhbox \voidb@x \hbox {\relax \fontsize  {7}{8}\selectfont  $\leftarrow \joinrel  \rhook $}}{}{}H\discretionary {\unhbox \voidb@x \hbox {\relax \fontsize  {7}{8}\selectfont  $\leftarrow \joinrel  \rhook $}}{}{}I\discretionary {\unhbox \voidb@x \hbox {\relax \fontsize  {7}{8}\selectfont  $\leftarrow \joinrel  \rhook $}}{}{}L\discretionary {\unhbox \voidb@x \hbox {\relax \fontsize  {7}{8}\selectfont  $\leftarrow \joinrel  \rhook $}}{}{}D\discretionary {\unhbox \voidb@x \hbox {\relax \fontsize  {7}{8}\selectfont  $\leftarrow \joinrel  \rhook $}}{}{}\_\discretionary {\unhbox \voidb@x \hbox {\relax \fontsize  {7}{8}\selectfont  $\leftarrow \joinrel  \rhook $}}{}{}R}{21}{subsubsection.5.4.2.2}}
\newlabel{heap_8h_ad70f10cbeea718a8fdeb5083b0b1b8eb}{{5.4.2.2}{21}{\texorpdfstring {F\+I\+N\+D\+\_\+\+C\+H\+I\+L\+D\+\_\+R}{FIND\_CHILD\_R}}{subsubsection.5.4.2.2}{}}
\@writefile{toc}{\contentsline {subsubsection}{\numberline {5.4.2.3}F\discretionary {\unhbox \voidb@x \hbox {\relax \fontsize  {7}{8}\selectfont  $\leftarrow \joinrel  \rhook $}}{}{}I\discretionary {\unhbox \voidb@x \hbox {\relax \fontsize  {7}{8}\selectfont  $\leftarrow \joinrel  \rhook $}}{}{}N\discretionary {\unhbox \voidb@x \hbox {\relax \fontsize  {7}{8}\selectfont  $\leftarrow \joinrel  \rhook $}}{}{}D\discretionary {\unhbox \voidb@x \hbox {\relax \fontsize  {7}{8}\selectfont  $\leftarrow \joinrel  \rhook $}}{}{}\_\discretionary {\unhbox \voidb@x \hbox {\relax \fontsize  {7}{8}\selectfont  $\leftarrow \joinrel  \rhook $}}{}{}\discretionary {\unhbox \voidb@x \hbox {\relax \fontsize  {7}{8}\selectfont  $\leftarrow \joinrel  \rhook $}}{}{}P\discretionary {\unhbox \voidb@x \hbox {\relax \fontsize  {7}{8}\selectfont  $\leftarrow \joinrel  \rhook $}}{}{}A\discretionary {\unhbox \voidb@x \hbox {\relax \fontsize  {7}{8}\selectfont  $\leftarrow \joinrel  \rhook $}}{}{}R\discretionary {\unhbox \voidb@x \hbox {\relax \fontsize  {7}{8}\selectfont  $\leftarrow \joinrel  \rhook $}}{}{}E\discretionary {\unhbox \voidb@x \hbox {\relax \fontsize  {7}{8}\selectfont  $\leftarrow \joinrel  \rhook $}}{}{}NT}{21}{subsubsection.5.4.2.3}}
\@writefile{toc}{\contentsline {section}{\numberline {5.5}Rep\discretionary {\unhbox \voidb@x \hbox {\relax \fontsize  {7}{8}\selectfont  $\leftarrow \joinrel  \rhook $}}{}{}Sel\discretionary {\unhbox \voidb@x \hbox {\relax \fontsize  {7}{8}\selectfont  $\leftarrow \joinrel  \rhook $}}{}{}\_\discretionary {\unhbox \voidb@x \hbox {\relax \fontsize  {7}{8}\selectfont  $\leftarrow \joinrel  \rhook $}}{}{}\discretionary {\unhbox \voidb@x \hbox {\relax \fontsize  {7}{8}\selectfont  $\leftarrow \joinrel  \rhook $}}{}{}Algorithm.\discretionary {\unhbox \voidb@x \hbox {\relax \fontsize  {7}{8}\selectfont  $\leftarrow \joinrel  \rhook $}}{}{}cpp File Reference}{22}{section.5.5}}
\newlabel{_rep_sel___algorithm_8cpp}{{5.5}{22}{Rep\+Sel\+\_\+\+Algorithm.\+cpp File Reference}{section.5.5}{}}
\newlabel{_rep_sel___algorithm_8cpp_aa1d36f20e0ad6680fdba0727455dd1e4}{{5.5}{22}{Macros}{section*.22}{}}
\newlabel{_rep_sel___algorithm_8cpp_aa25fde278178b32bc6fedb65dd181a39}{{5.5}{22}{Macros}{section*.22}{}}
\newlabel{_rep_sel___algorithm_8cpp_a101f6a60f2d8d447a5877f3b940302ce}{{5.5}{22}{Macros}{section*.22}{}}
\newlabel{_rep_sel___algorithm_8cpp_a38a196d020f78f178a33927d741a03f2}{{5.5}{22}{Macros}{section*.22}{}}
\newlabel{_rep_sel___algorithm_8cpp_aa90cac659d18e8ef6294c7ae337f6b58}{{5.5}{22}{Macros}{section*.22}{}}
\newlabel{_rep_sel___algorithm_8cpp_ab002b58cfe2bebd8395b945b7d7973f8}{{5.5}{22}{Macros}{section*.22}{}}
\newlabel{_rep_sel___algorithm_8cpp_a34a9a3b3d124199a0010ef2cf2e7fcc3}{{5.5}{22}{Macros}{section*.22}{}}
\newlabel{_rep_sel___algorithm_8cpp_ae590af35181188da9f2c6fb5fd10aff2}{{5.5}{22}{Macros}{section*.22}{}}
\newlabel{_rep_sel___algorithm_8cpp_ac328e551bde3d39b6d7b8cc9e048d941}{{5.5}{22}{Macros}{section*.22}{}}
\newlabel{_rep_sel___algorithm_8cpp_a206b6f5362e56b51ca957635350b70b6}{{5.5}{22}{Macros}{section*.22}{}}
\newlabel{_rep_sel___algorithm_8cpp_ab14b9a70a53b40086be7ad782b903bd4}{{5.5}{23}{Variables}{section*.24}{}}
\newlabel{_rep_sel___algorithm_8cpp_a00bd68da1e74a3e15b12d4973c38600f}{{5.5}{23}{Variables}{section*.24}{}}
\newlabel{_rep_sel___algorithm_8cpp_a2d9bc46fe6c912b0aa3de4da02405301}{{5.5}{23}{Variables}{section*.24}{}}
\newlabel{_rep_sel___algorithm_8cpp_aab522051111856beaeaba63b9f2064c9}{{5.5}{23}{Variables}{section*.24}{}}
\newlabel{_rep_sel___algorithm_8cpp_a71c047509f76f5c3f56cae239c74499f}{{5.5}{23}{Variables}{section*.24}{}}
\newlabel{_rep_sel___algorithm_8cpp_ac69ac77d8de8178333839b3656a7a012}{{5.5}{23}{Variables}{section*.24}{}}
\newlabel{_rep_sel___algorithm_8cpp_a1c1797cac524b27fde558bfdf6ff6803}{{5.5}{23}{Variables}{section*.24}{}}
\newlabel{_rep_sel___algorithm_8cpp_aa28557e24d046b40ba26d7f8557a16c9}{{5.5}{23}{Variables}{section*.24}{}}
\newlabel{_rep_sel___algorithm_8cpp_ac203f02c2c80b5dd243bb087f090b883}{{5.5}{23}{Variables}{section*.24}{}}
\newlabel{_rep_sel___algorithm_8cpp_ae923c69fade01ea628a324bf0e3f7da4}{{5.5}{23}{Variables}{section*.24}{}}
\newlabel{_rep_sel___algorithm_8cpp_a2d64993d48d62f94f0808c3a957ad482}{{5.5}{23}{Variables}{section*.24}{}}
\newlabel{_rep_sel___algorithm_8cpp_a0b4bc2cae8e5b5a2c9096a82305a8787}{{5.5}{23}{Variables}{section*.24}{}}
\newlabel{_rep_sel___algorithm_8cpp_afb0befaa5dd3b3199b2144399fb85c67}{{5.5}{23}{Variables}{section*.24}{}}
\newlabel{_rep_sel___algorithm_8cpp_a870610de5e6973235247dbe4854c8c5b}{{5.5}{23}{Variables}{section*.24}{}}
\newlabel{_rep_sel___algorithm_8cpp_a06511a34f1bad6c01cfb52132f99e3ac}{{5.5}{23}{Variables}{section*.24}{}}
\newlabel{_rep_sel___algorithm_8cpp_ac8108b5b4cecf703e5375e908aa93c3a}{{5.5}{23}{Variables}{section*.24}{}}
\newlabel{_rep_sel___algorithm_8cpp_acb51cec70830c1a610d7bef95996b41a}{{5.5}{23}{Variables}{section*.24}{}}
\newlabel{_rep_sel___algorithm_8cpp_a6e44cbf73806dbf79cc26e67ffbaa3a8}{{5.5}{23}{Variables}{section*.24}{}}
\newlabel{_rep_sel___algorithm_8cpp_aaece3ccf321fbb3b2b466740f5f80123}{{5.5}{23}{Variables}{section*.24}{}}
\newlabel{_rep_sel___algorithm_8cpp_a0ff3d054e029ce83471d3bd59c770dd0}{{5.5}{23}{Variables}{section*.24}{}}
\newlabel{_rep_sel___algorithm_8cpp_a113748798b190f6e24841a6e3a35d699}{{5.5}{23}{Variables}{section*.24}{}}
\newlabel{_rep_sel___algorithm_8cpp_a0abce0dfe17d44ad51fedd2278daa5a2}{{5.5}{23}{Variables}{section*.24}{}}
\newlabel{_rep_sel___algorithm_8cpp_a19bf0d5dad877cdef470d6761eade6f5}{{5.5}{23}{Variables}{section*.24}{}}
\@writefile{toc}{\contentsline {subsection}{\numberline {5.5.1}Detailed Description}{23}{subsection.5.5.1}}
\@writefile{toc}{\contentsline {subsection}{\numberline {5.5.2}Function Documentation}{24}{subsection.5.5.2}}
\newlabel{_rep_sel___algorithm_8cpp_a3c04138a5bfe5d72780bb7e82a18e627}{{5.5.2}{24}{Function Documentation}{subsection.5.5.2}{}}
\@writefile{toc}{\contentsline {subsubsection}{\numberline {5.5.2.1}main()}{24}{subsubsection.5.5.2.1}}
\newlabel{_rep_sel___algorithm_8cpp_a4c31ba387abe1be9d06fcce51fb9213a}{{5.5.2.1}{24}{A\+R\+G\+U\+M\+E\+N\+TS\+:}{section*.26}{}}
\@writefile{toc}{\contentsline {subsubsection}{\numberline {5.5.2.2}merge\discretionary {\unhbox \voidb@x \hbox {\relax \fontsize  {7}{8}\selectfont  $\leftarrow \joinrel  \rhook $}}{}{}K\discretionary {\unhbox \voidb@x \hbox {\relax \fontsize  {7}{8}\selectfont  $\leftarrow \joinrel  \rhook $}}{}{}Way()}{24}{subsubsection.5.5.2.2}}
\gdef \LT@v {\LT@entry 
    {3}{24.79999pt}\LT@entry 
    {3}{80.60982pt}\LT@entry 
    {3}{245.27895pt}}
\@writefile{toc}{\contentsline {chapter}{Index}{27}{section*.27}}
